{
  "extends": ["config:base"],
  "assignees": ["autoferrit"],
  "automerge": false,
  "baseBranches": ["develop"],
  "bumpVersion": "patch",
  "lockFileMaintenance": {
    "enabled": true
  },
  "major": {
    "automerge": false
  },
  "prConcurrentLimit": 10,
  "prHourlyLimit": 5,
  "rangeStrategy": "update-lockfile"
}
